C:\environment\workspace-hackaton\Hackaton-BackEnd\src\main\java\com\stefanini\hackaton\backend\entity\ClientEntity.java
C:\environment\workspace-hackaton\Hackaton-BackEnd\src\main\java\com\stefanini\hackaton\backend\jetty\ApplicationConfiguration.java
C:\environment\workspace-hackaton\Hackaton-BackEnd\src\main\java\com\stefanini\hackaton\backend\controller\ClientController.java
C:\environment\workspace-hackaton\Hackaton-BackEnd\src\main\java\com\stefanini\hackaton\backend\repository\ClientRepository.java
C:\environment\workspace-hackaton\Hackaton-BackEnd\src\main\java\com\stefanini\hackaton\backend\resource\ClientResource.java
C:\environment\workspace-hackaton\Hackaton-BackEnd\src\main\java\com\stefanini\hackaton\backend\service\ClientService.java
